simulation/qsim/simpleALU.msim.vcd
$comment
	File created using the following command:
		vcd file simpleALU.msim.vcd -direction
$end
$date
	Sat Apr 11 17:56:26 2020
$end
$version
	ModelSim Version 10.5b
$end
$timescale
	1ps
$end

$scope module simplealu_vhd_vec_tst $end
$var wire 1 ! arg1 [7] $end
$var wire 1 " arg1 [6] $end
$var wire 1 # arg1 [5] $end
$var wire 1 $ arg1 [4] $end
$var wire 1 % arg1 [3] $end
$var wire 1 & arg1 [2] $end
$var wire 1 ' arg1 [1] $end
$var wire 1 ( arg1 [0] $end
$var wire 1 ) arg2 [7] $end
$var wire 1 * arg2 [6] $end
$var wire 1 + arg2 [5] $end
$var wire 1 , arg2 [4] $end
$var wire 1 - arg2 [3] $end
$var wire 1 . arg2 [2] $end
$var wire 1 / arg2 [1] $end
$var wire 1 0 arg2 [0] $end
$var wire 1 1 Carryout $end
$var wire 1 2 opcode [2] $end
$var wire 1 3 opcode [1] $end
$var wire 1 4 opcode [0] $end
$var wire 1 5 result [7] $end
$var wire 1 6 result [6] $end
$var wire 1 7 result [5] $end
$var wire 1 8 result [4] $end
$var wire 1 9 result [3] $end
$var wire 1 : result [2] $end
$var wire 1 ; result [1] $end
$var wire 1 < result [0] $end
$var wire 1 = result_9bit [8] $end
$var wire 1 > result_9bit [7] $end
$var wire 1 ? result_9bit [6] $end
$var wire 1 @ result_9bit [5] $end
$var wire 1 A result_9bit [4] $end
$var wire 1 B result_9bit [3] $end
$var wire 1 C result_9bit [2] $end
$var wire 1 D result_9bit [1] $end
$var wire 1 E result_9bit [0] $end

$scope module i1 $end
$var wire 1 F gnd $end
$var wire 1 G vcc $end
$var wire 1 H unknown $end
$var wire 1 I devoe $end
$var wire 1 J devclrn $end
$var wire 1 K devpor $end
$var wire 1 L ww_devoe $end
$var wire 1 M ww_devclrn $end
$var wire 1 N ww_devpor $end
$var wire 1 O ww_opcode [2] $end
$var wire 1 P ww_opcode [1] $end
$var wire 1 Q ww_opcode [0] $end
$var wire 1 R ww_arg1 [7] $end
$var wire 1 S ww_arg1 [6] $end
$var wire 1 T ww_arg1 [5] $end
$var wire 1 U ww_arg1 [4] $end
$var wire 1 V ww_arg1 [3] $end
$var wire 1 W ww_arg1 [2] $end
$var wire 1 X ww_arg1 [1] $end
$var wire 1 Y ww_arg1 [0] $end
$var wire 1 Z ww_arg2 [7] $end
$var wire 1 [ ww_arg2 [6] $end
$var wire 1 \ ww_arg2 [5] $end
$var wire 1 ] ww_arg2 [4] $end
$var wire 1 ^ ww_arg2 [3] $end
$var wire 1 _ ww_arg2 [2] $end
$var wire 1 ` ww_arg2 [1] $end
$var wire 1 a ww_arg2 [0] $end
$var wire 1 b ww_result [7] $end
$var wire 1 c ww_result [6] $end
$var wire 1 d ww_result [5] $end
$var wire 1 e ww_result [4] $end
$var wire 1 f ww_result [3] $end
$var wire 1 g ww_result [2] $end
$var wire 1 h ww_result [1] $end
$var wire 1 i ww_result [0] $end
$var wire 1 j ww_result_9bit [8] $end
$var wire 1 k ww_result_9bit [7] $end
$var wire 1 l ww_result_9bit [6] $end
$var wire 1 m ww_result_9bit [5] $end
$var wire 1 n ww_result_9bit [4] $end
$var wire 1 o ww_result_9bit [3] $end
$var wire 1 p ww_result_9bit [2] $end
$var wire 1 q ww_result_9bit [1] $end
$var wire 1 r ww_result_9bit [0] $end
$var wire 1 s ww_Carryout $end
$var wire 1 t \result[0]~output_o\ $end
$var wire 1 u \result[1]~output_o\ $end
$var wire 1 v \result[2]~output_o\ $end
$var wire 1 w \result[3]~output_o\ $end
$var wire 1 x \result[4]~output_o\ $end
$var wire 1 y \result[5]~output_o\ $end
$var wire 1 z \result[6]~output_o\ $end
$var wire 1 { \result[7]~output_o\ $end
$var wire 1 | \result_9bit[0]~output_o\ $end
$var wire 1 } \result_9bit[1]~output_o\ $end
$var wire 1 ~ \result_9bit[2]~output_o\ $end
$var wire 1 !! \result_9bit[3]~output_o\ $end
$var wire 1 "! \result_9bit[4]~output_o\ $end
$var wire 1 #! \result_9bit[5]~output_o\ $end
$var wire 1 $! \result_9bit[6]~output_o\ $end
$var wire 1 %! \result_9bit[7]~output_o\ $end
$var wire 1 &! \result_9bit[8]~output_o\ $end
$var wire 1 '! \Carryout~output_o\ $end
$var wire 1 (! \arg2[0]~input_o\ $end
$var wire 1 )! \arg1[0]~input_o\ $end
$var wire 1 *! \opcode[2]~input_o\ $end
$var wire 1 +! \opcode[0]~input_o\ $end
$var wire 1 ,! \opcode[1]~input_o\ $end
$var wire 1 -! \Add0~0_combout\ $end
$var wire 1 .! \Mux16~3_combout\ $end
$var wire 1 /! \Add1~0_combout\ $end
$var wire 1 0! \arg2[7]~input_o\ $end
$var wire 1 1! \arg1[7]~input_o\ $end
$var wire 1 2! \arg2[6]~input_o\ $end
$var wire 1 3! \arg1[6]~input_o\ $end
$var wire 1 4! \arg2[5]~input_o\ $end
$var wire 1 5! \arg1[5]~input_o\ $end
$var wire 1 6! \arg2[4]~input_o\ $end
$var wire 1 7! \arg1[4]~input_o\ $end
$var wire 1 8! \arg2[3]~input_o\ $end
$var wire 1 9! \arg1[3]~input_o\ $end
$var wire 1 :! \arg2[2]~input_o\ $end
$var wire 1 ;! \arg1[2]~input_o\ $end
$var wire 1 <! \arg2[1]~input_o\ $end
$var wire 1 =! \arg1[1]~input_o\ $end
$var wire 1 >! \Add0~1\ $end
$var wire 1 ?! \Add0~3\ $end
$var wire 1 @! \Add0~5\ $end
$var wire 1 A! \Add0~7\ $end
$var wire 1 B! \Add0~9\ $end
$var wire 1 C! \Add0~11\ $end
$var wire 1 D! \Add0~13\ $end
$var wire 1 E! \Add0~15\ $end
$var wire 1 F! \Add0~16_combout\ $end
$var wire 1 G! \Mux7~5_combout\ $end
$var wire 1 H! \Mux7~2_combout\ $end
$var wire 1 I! \Mux7~3_combout\ $end
$var wire 1 J! \Mux7~4_combout\ $end
$var wire 1 K! \Add0~2_combout\ $end
$var wire 1 L! \Mux15~2_combout\ $end
$var wire 1 M! \Add1~1\ $end
$var wire 1 N! \Add1~2_combout\ $end
$var wire 1 O! \Mux6~0_combout\ $end
$var wire 1 P! \Mux6~1_combout\ $end
$var wire 1 Q! \Mux6~2_combout\ $end
$var wire 1 R! \Add0~4_combout\ $end
$var wire 1 S! \Mux14~2_combout\ $end
$var wire 1 T! \Add1~3\ $end
$var wire 1 U! \Add1~4_combout\ $end
$var wire 1 V! \Mux5~0_combout\ $end
$var wire 1 W! \Mux5~1_combout\ $end
$var wire 1 X! \Mux5~2_combout\ $end
$var wire 1 Y! \Add0~6_combout\ $end
$var wire 1 Z! \Mux13~2_combout\ $end
$var wire 1 [! \Add1~5\ $end
$var wire 1 \! \Add1~6_combout\ $end
$var wire 1 ]! \Mux4~0_combout\ $end
$var wire 1 ^! \Mux4~1_combout\ $end
$var wire 1 _! \Mux4~2_combout\ $end
$var wire 1 `! \Add0~8_combout\ $end
$var wire 1 a! \Mux12~2_combout\ $end
$var wire 1 b! \Add1~7\ $end
$var wire 1 c! \Add1~8_combout\ $end
$var wire 1 d! \Mux3~0_combout\ $end
$var wire 1 e! \Mux3~1_combout\ $end
$var wire 1 f! \Mux3~2_combout\ $end
$var wire 1 g! \Add0~10_combout\ $end
$var wire 1 h! \Mux11~2_combout\ $end
$var wire 1 i! \Add1~9\ $end
$var wire 1 j! \Add1~10_combout\ $end
$var wire 1 k! \Mux2~0_combout\ $end
$var wire 1 l! \Mux2~1_combout\ $end
$var wire 1 m! \Mux2~2_combout\ $end
$var wire 1 n! \Add0~12_combout\ $end
$var wire 1 o! \Mux10~2_combout\ $end
$var wire 1 p! \Add1~11\ $end
$var wire 1 q! \Add1~12_combout\ $end
$var wire 1 r! \Mux1~0_combout\ $end
$var wire 1 s! \Mux1~1_combout\ $end
$var wire 1 t! \Mux1~2_combout\ $end
$var wire 1 u! \Add0~14_combout\ $end
$var wire 1 v! \Mux9~2_combout\ $end
$var wire 1 w! \Add1~13\ $end
$var wire 1 x! \Add1~14_combout\ $end
$var wire 1 y! \Mux0~0_combout\ $end
$var wire 1 z! \Mux0~1_combout\ $end
$var wire 1 {! \Mux0~2_combout\ $end
$var wire 1 |! \Mux16~2_combout\ $end
$var wire 1 }! \Mux25~0_combout\ $end
$var wire 1 ~! \Mux24~0_combout\ $end
$var wire 1 !" \Mux23~0_combout\ $end
$var wire 1 "" \Mux22~0_combout\ $end
$var wire 1 #" \Mux21~0_combout\ $end
$var wire 1 $" \Mux20~0_combout\ $end
$var wire 1 %" \Mux19~0_combout\ $end
$var wire 1 &" \Mux18~0_combout\ $end
$var wire 1 '" \Mux8~0_combout\ $end
$upscope $end
$upscope $end
$enddefinitions $end
#0
$dumpvars
01
0F
1G
xH
1I
1J
1K
1L
1M
1N
0s
0t
0u
1v
0w
1x
1y
1z
1{
0|
0}
0~
0!!
0"!
0#!
0$!
0%!
0&!
0'!
1(!
0)!
0*!
0+!
0,!
1-!
0.!
1/!
00!
11!
02!
13!
14!
15!
06!
17!
08!
09!
1:!
1;!
0<!
0=!
0>!
1?!
1@!
1A!
0B!
0C!
1D!
0E!
0F!
1G!
0H!
0I!
0J!
0K!
0L!
0M!
1N!
0O!
0P!
0Q!
0R!
0S!
1T!
1U!
0V!
0W!
1X!
1Y!
0Z!
0[!
1\!
0]!
0^!
0_!
1`!
0a!
1b!
0c!
0d!
0e!
1f!
0g!
0h!
1i!
0j!
0k!
0l!
1m!
0n!
0o!
0p!
1q!
0r!
0s!
1t!
0u!
0v!
1w!
1x!
0y!
0z!
1{!
0|!
0}!
0~!
0!"
0""
0#"
0$"
0%"
0&"
0'"
1!
1"
1#
1$
0%
1&
0'
0(
0)
0*
1+
0,
0-
1.
0/
10
02
03
04
0O
0P
0Q
1R
1S
1T
1U
0V
1W
0X
0Y
0Z
0[
1\
0]
0^
1_
0`
1a
1b
1c
1d
1e
0f
1g
0h
0i
0j
0k
0l
0m
0n
0o
0p
0q
0r
15
16
17
18
09
1:
0;
0<
0=
0>
0?
0@
0A
0B
0C
0D
0E
$end
#10000
14
0!
0"
1%
1'
1(
1-
0.
00
1Q
1Y
1X
1V
0S
0R
0a
0_
1^
18!
0:!
0(!
01!
03!
19!
1=!
1)!
1+!
1H!
1O!
1V!
1]!
1r!
1y!
1J!
1K!
0N!
0T!
1Q!
1_!
1n!
0D!
0q!
0t!
1u!
1E!
1F!
0x!
0{!
1M!
1R!
0@!
0U!
1[!
0A!
0`!
1B!
0\!
0b!
0V!
0Y!
1N!
0y!
0F!
0r!
0u!
1U!
0O!
1z!
1s!
1^!
1W!
1P!
1I!
0P!
1V!
0s!
0z!
1O!
0W!
1c!
0]!
1g!
0{
0z
1w
1u
1t
0^!
1d!
1P!
1W!
0b
0c
1f
1h
1i
1<
1;
19
06
05
1e!
#20000
04
1!
1"
0%
0(
10
13
1*
0+
1,
1/
0Q
1P
0Y
0V
1S
1R
1a
1`
1]
0\
1[
12!
04!
16!
1<!
1(!
11!
13!
09!
0)!
1,!
0+!
0H!
0O!
0V!
0d!
0G!
0J!
1Y!
1A!
1\!
1b!
0_!
1t!
1u!
1F!
1x!
1{!
0M!
0K!
0?!
0N!
1`!
0c!
0g!
1j!
1D!
1s!
0u!
0E!
0R!
1@!
1N!
1T!
1c!
0i!
0`!
0W!
0I!
0j!
0U!
0Y!
0A!
0F!
1{
1z
0w
0t
1`!
1b
1c
0f
0i
0<
09
16
15
#30000
14
0!
00
0*
1+
0/
0'
0-
1.
0#
1)
1Q
0X
0T
0R
0a
0`
1_
0^
1\
0[
1Z
10!
02!
14!
08!
1:!
0<!
0(!
01!
05!
0=!
1+!
1H!
1O!
1V!
1]!
1d!
1k!
1r!
1y!
0Q!
0m!
0{!
0-!
0/!
1M!
1?!
0P!
1R!
1U!
0[!
1W!
1Y!
1A!
0\!
0b!
1p!
0n!
1q!
0s!
0q!
0c!
1i!
0`!
1\!
1b!
0R!
0N!
0T!
1z!
1s!
1l!
0U!
1[!
1c!
0i!
1j!
0{
0y
0u
0j!
0\!
0b!
0b
0d
0h
0;
07
05
0c!
1i!
1j!
#40000
04
1!
10
1*
0+
1-
0.
1#
0"
03
12
0$
0Q
0P
1O
0U
1T
0S
1R
1a
0_
1^
0\
1[
12!
04!
18!
0:!
1(!
11!
03!
15!
07!
1*!
0,!
0+!
0H!
0O!
0V!
0]!
0d!
0k!
0r!
0y!
1P!
1G!
1Z!
1|!
1`!
0B!
1c!
0i!
1m!
1u!
1F!
0x!
1{!
1-!
1/!
0M!
1I!
1R!
0@!
1U!
0Y!
0A!
1\!
1b!
1^!
0p!
0w!
1x!
1q!
1_!
0c!
0`!
1B!
0Z!
1Y!
1A!
1S!
1J!
1N!
1T!
1.!
0G!
1'"
1v!
0j!
1g!
1C!
1a!
1}!
1!"
1#"
1&"
1]!
1Q!
0z!
0s!
0l!
0e!
0^!
0W!
0P!
0I!
0J!
0Q!
0X!
0_!
0f!
0m!
0t!
0{!
1^!
1n!
0D!
1h!
1$"
0U!
1`!
0B!
1Z!
1""
0]!
0g!
0C!
0a!
0#"
1{
1y
0n!
1D!
0h!
0$"
0^!
1g!
1C!
1a!
1#"
0u!
1o!
1%"
1_!
1b
1d
1u
1%!
1"!
1~
1|
1&!
1'!
1t
1w
17
15
0v!
0&"
1n!
0D!
1h!
1$"
0_!
1u!
0o!
0%"
1h
1k
1n
1p
1r
1j
1s
1i
1f
0"!
1!!
1#!
0{
0z
0y
0x
0w
0v
0u
0t
1<
1;
19
1E
1C
1A
1>
1=
11
1v!
1&"
0u!
1o!
1%"
0n
1o
1m
0b
0c
0d
0e
0f
0g
0h
0i
1w
1$!
1"!
0#!
1B
0A
1@
0<
0;
0:
09
08
07
06
05
0v!
0&"
1f
1l
1n
0m
0$!
0w
1#!
0%!
19
1A
0@
1?
0l
0f
1m
0k
1$!
1%!
1@
0?
0>
09
1l
1k
0%!
1?
1>
0k
0>
#50000
14
0!
0-
1.
0#
1"
1/
0)
0&
1Q
0W
0T
1S
0R
1`
1_
0^
0Z
00!
08!
1:!
1<!
01!
13!
05!
0;!
1+!
0.!
1G!
1H!
1O!
0S!
1V!
0Z!
1]!
0a!
1d!
0h!
1k!
0o!
1r!
1y!
0|!
0'"
0g!
1j!
1p!
0n!
1D!
0q!
1w!
1K!
0N!
0[!
0Y!
0\!
0b!
1E!
0F!
1c!
1\!
1b!
0x!
1u!
1q!
0w!
0}!
0!"
0""
0#"
0$"
0%"
1z!
1s!
1l!
1e!
1^!
1W!
1P!
1I!
0O!
0V!
0]!
0d!
0r!
0s!
0e!
0^!
0W!
0P!
1J!
1Q!
1X!
1_!
1f!
1m!
1t!
1{!
1x!
1r!
0y!
0c!
1]!
1d!
0&!
0'!
1e!
1^!
0d!
0z!
1s!
1y!
0Q!
0X!
0_!
0f!
0t!
0j
0s
0$!
0#!
0"!
0!!
0~
0|
0=
01
1z!
1t!
0{!
0e!
1_!
1f!
0l
0m
0n
0o
0p
0r
1{
1z
1y
1x
1w
1v
1u
1t
0E
0C
0B
0A
0@
0?
0f!
1{!
1b
1c
1d
1e
1f
1g
1h
1i
0z
0x
0w
0v
0u
1<
1;
1:
19
18
17
16
15
0c
0e
0f
0g
0h
1x
1w
0{
1z
0;
0:
09
08
06
1e
1f
0b
1c
1{
0x
19
18
16
05
1b
0e
08
15
#60000
04
1-
1)
13
1$
1%
1(
0Q
1P
1^
1Z
1Y
1V
1U
17!
19!
1)!
10!
18!
1,!
0+!
0H!
0]!
0k!
0r!
0y!
0G!
0l!
0u!
0E!
1F!
0x!
0-!
1>!
0/!
1M!
0A!
0`!
1B!
1c!
1e!
1f!
1g!
1`!
1N!
0K!
0?!
0F!
0m!
0z!
0{!
0R!
1@!
1Y!
0y
1x
0d
1e
0{
18
07
0b
05
#70000
14
0)
0$
0%
0.
1#
00
0*
1'
0,
1Q
0a
0_
0]
0[
0Z
1X
0V
0U
1T
15!
07!
09!
1=!
00!
02!
06!
0:!
0(!
1+!
1H!
1O!
1V!
1]!
1d!
1k!
1r!
1y!
1-!
0>!
1/!
0I!
1R!
0@!
1U!
1n!
0D!
0q!
1w!
0s!
1u!
1E!
1F!
1x!
1K!
0N!
0T!
1P!
0Y!
0\!
0^!
0B!
0e!
0g!
0C!
0j!
0p!
1q!
0n!
1D!
0f!
1g!
1C!
0_!
1Q!
0U!
1[!
0F!
0t!
0x!
0u!
1Y!
1A!
0J!
0K!
1s!
1l!
1^!
1I!
1J!
1_!
1m!
1t!
0`!
1\!
1n!
0D!
1u!
0u!
0t
0z
1u
0w
0x
0i
0c
1h
0f
0e
1z
1y
1w
1t
0<
1;
09
08
06
1c
1d
1f
1i
1<
19
17
16
#80000
04
1)
1$
1.
0#
0-
03
1!
0"
1&
02
0Q
0P
0O
1_
0^
1Z
1W
1U
0T
0S
1R
11!
03!
05!
17!
1;!
10!
08!
1:!
0*!
0,!
0+!
0H!
0O!
0V!
0]!
0d!
0k!
0r!
0y!
1G!
0_!
0Y!
0\!
0b!
1@!
1W!
1X!
1`!
0c!
1i!
1e!
1f!
0g!
1j!
1p!
0m!
0n!
0q!
0t!
0E!
1z!
1{!
1F!
1q!
0w!
0j!
0p!
1Y!
1c!
0z!
0s!
0l!
0e!
0^!
0W!
0P!
0I!
0q!
1w!
1x!
1{
0z
0y
1x
1v
0w
0x!
1b
0c
0d
1e
1g
0f
1:
09
18
07
06
15
#90000
14
0)
0$
1#
0!
1"
0&
1%
1*
0'
1,
0/
1+
1Q
0`
1]
1\
1[
0Z
0X
0W
1V
0U
1T
1S
0R
01!
13!
15!
07!
19!
0;!
0=!
00!
12!
14!
16!
0<!
1+!
1H!
1d!
1?!
0Q!
0R!
1U!
0[!
0X!
0Y!
0A!
1\!
1_!
0i!
0f!
0C!
1m!
1D!
1t!
1E!
0{!
0F!
1u!
1n!
1j!
1p!
1]!
0`!
1B!
0\!
1V!
1R!
0@!
1e!
1I!
1Y!
1A!
1W!
0]!
1g!
1^!
1q!
0w!
1k!
0{
1z
1y
0x
1w
0v
0u
1l!
1x!
1r!
0^!
1`!
0B!
0b
1c
1d
0e
1f
0g
0h
0;
0:
19
08
17
16
05
0g!
1s!
1y!
1z!
#100000
04
1!
0"
1&
0%
0*
1'
0+
1-
13
10
0(
0Q
1P
0Y
1X
1W
0V
0S
1R
1a
1^
0\
0[
02!
04!
18!
1(!
11!
03!
09!
1;!
1=!
0)!
1,!
0+!
0H!
0V!
0d!
0k!
0r!
0y!
0G!
0J!
1K!
1N!
1Q!
0R!
1@!
0U!
1[!
1X!
0_!
0t!
0u!
0E!
1F!
0x!
1{!
0M!
1b!
1g!
1C!
0j!
0p!
0D!
0s!
1u!
1E!
0q!
1w!
0n!
0c!
0N!
0F!
1\!
0Y!
0A!
0z!
0l!
0e!
0I!
0`!
1B!
1x!
1F!
1{
0z
0w
1v
1u
0t
0g!
0C!
1b
0c
0f
1g
1h
0i
0<
1;
1:
09
06
15
1n!
#110000
14
0&
1*
0'
0-
00
1(
1$
1/
1Q
1Y
0X
0W
1U
0a
1`
0^
1[
12!
08!
1<!
0(!
17!
0;!
0=!
1)!
1+!
1H!
1O!
1V!
1]!
1d!
1k!
1r!
1y!
1J!
0Q!
1R!
0@!
1U!
0[!
0W!
0X!
1`!
1c!
1e!
1f!
1M!
1T!
1Y!
1A!
0\!
0b!
0n!
1D!
1q!
0w!
0x!
0u!
0E!
0c!
1i!
0`!
0U!
1N!
1\!
1b!
0Y!
1z!
1s!
1l!
1W!
1P!
1I!
1c!
0i!
1j!
0F!
1x
0v
0u
1t
0j!
1e
0g
0h
1i
1<
0;
0:
18
#120000
04
1&
0*
1-
10
0(
0$
0/
0!
1%
03
0.
12
0Q
0P
1O
0Y
1W
1V
0U
0R
1a
0`
0_
1^
0[
02!
18!
0:!
0<!
1(!
01!
07!
19!
1;!
0)!
1*!
0,!
0+!
0H!
0O!
0V!
0]!
0d!
0k!
0r!
0y!
1.!
1G!
1L!
1Q!
1S!
1t!
1|!
1X!
1`!
0B!
0c!
1u!
1E!
1F!
1x!
0M!
0K!
0N!
0T!
1[!
0A!
1^!
1n!
0D!
0q!
1w!
0x!
0u!
1o!
1_!
0`!
1B!
0\!
0b!
1U!
0L!
1N!
1T!
0G!
1'"
0F!
1v!
1g!
1C!
1a!
1}!
1!"
1#"
1%"
1&"
1O!
1V!
1H!
0z!
0s!
0l!
0e!
0^!
0W!
0P!
0I!
0J!
0Q!
0X!
0_!
0f!
0m!
0t!
0{!
1I!
1W!
1P!
0n!
1h!
1G!
0}!
0!"
0%"
0'"
0H!
0U!
0O!
0V!
1c!
0g!
0C!
0a!
0#"
0v!
0&"
1v
1z
1u
1n!
0h!
0W!
0P!
0I!
1H!
1V!
1r!
1k!
0o!
1Q!
1X!
1J!
1g
1c
1h
1%!
1$!
1"!
1~
1|
1&!
1'!
1w
1;
1:
16
0r!
1l!
1s!
1W!
1I!
0J!
0Q!
0X!
0k!
1o!
1k
1l
1n
1p
1r
1j
1s
1f
0%!
0"!
0&!
0'!
0$!
0~
0|
0{
0z
0y
0x
0w
0v
0u
0t
1E
1C
1A
1?
1>
1=
11
19
1r!
0l!
1J!
1X!
1t!
1m!
0s!
0k
0n
0j
0s
0l
0p
0r
0b
0c
0d
0e
0f
0g
0h
0i
1t
1v
1u
0E
0C
0A
0?
0>
0=
01
0<
0;
0:
09
08
07
06
05
0t!
0m!
1s!
1i
1g
1h
0v
0u
0t
1<
1;
1:
1t!
0g
0h
0i
1y
1z
1v
1t
0<
0;
0:
1d
1c
1g
1i
0y
0z
1<
1:
17
16
0d
0c
1z
07
06
1c
16
#130000
14
0-
00
1(
1/
1.
1'
1+
0,
1Q
0a
1`
1_
0^
0]
1\
1Y
1X
1=!
1)!
14!
06!
08!
1:!
1<!
0(!
1+!
0.!
1O!
0S!
0V!
1d!
0o!
0r!
0|!
0R!
1@!
1U!
0[!
1Y!
1A!
1\!
1`!
0B!
0c!
1i!
1g!
1j!
1p!
1M!
0?!
1R!
0N!
0T!
1q!
0w!
1k!
0j!
0p!
0d!
0g!
1]!
0`!
0\!
0Y!
0A!
0s!
1e!
0W!
1V!
1P!
1Q!
1W!
0X!
1f!
0t!
1`!
0]!
1^!
0e!
0q!
1w!
0k!
1l!
1x!
1r!
0U!
1[!
0O!
0P!
1\!
0V!
1s!
1y!
1m!
0l!
0x!
0r!
0f!
1_!
0^!
1X!
0_!
0s!
0y!
0m!
1z!
1t!
0W!
1]!
0Q!
0z
1x
0v
1u
1^!
0X!
1{!
0z!
0t!
0c
1e
0g
1h
1v
1w
0x
1y
1;
0:
18
06
0{!
1_!
1g
1f
0e
1d
0u
1z
0y
0w
1:
19
08
17
0h
1c
0d
0f
0z
1{
0v
0;
09
07
16
0c
1b
0g
1w
0{
0:
06
15
1f
0b
19
05
#140000
04
10
0(
0+
1,
1$
0%
13
0Q
1P
1a
1]
0\
0Y
0V
1U
17!
09!
0)!
04!
16!
1(!
1,!
0+!
0H!
0]!
0G!
1P!
1W!
1g!
1C!
1j!
0M!
1Y!
1A!
0\!
0^!
1B!
1e!
1f!
0g!
0C!
0_!
0`!
1N!
1T!
0n!
1X!
1Q!
0I!
0J!
1U!
0[!
1n!
1\!
1b!
1u
1v
0w
1x
1c!
0i!
1h
1g
0f
1e
0t
1;
1:
09
18
0j!
0i
0<
#150000
14
00
1(
0,
1-
0'
0&
1!
1Q
0a
1^
0]
1Y
0X
0W
1R
11!
0;!
0=!
1)!
06!
18!
0(!
1+!
1H!
1O!
1V!
1]!
1d!
1k!
1r!
1y!
0Y!
0A!
0\!
1`!
0B!
0c!
1i!
0e!
1M!
1K!
1?!
0N!
0P!
0R!
0U!
0W!
1u!
1F!
1x!
0X!
0Q!
1R!
0@!
1N!
0f!
1j!
1g!
1C!
0`!
1B!
1z!
1l!
1e!
1^!
1W!
1P!
1I!
1J!
1Q!
1X!
1_!
1f!
1m!
1{!
0g!
0C!
0n!
1Y!
1A!
1`!
0B!
1n!
0x
0u
0v
1g!
1C!
0e
0h
0g
1{
1y
1x
1w
1v
1u
1t
0;
0:
08
0n!
1b
1d
1e
1f
1g
1h
1i
1<
1;
1:
19
18
17
15
#160000
04
10
1,
1'
1+
1%
03
1*
02
1)
0Q
0P
0O
1a
1]
1\
1[
1Z
1X
1V
19!
1=!
10!
12!
14!
16!
1(!
0*!
0,!
0+!
0H!
0O!
0V!
0]!
0d!
0k!
0r!
0y!
1G!
0X!
0-!
1>!
0/!
0`!
1B!
1c!
0i!
0g!
0C!
0j!
1n!
1q!
0w!
1s!
0u!
0E!
0F!
0x!
0K!
0?!
0N!
0T!
0Y!
0A!
1\!
1`!
1U!
0R!
1@!
1F!
1x!
0n!
1D!
1j!
1p!
1g!
1K!
0z!
0s!
0l!
0e!
0^!
0W!
0P!
0I!
0q!
1u!
1Y!
0v
0g
0:
#170000
14
0,
0'
0+
0(
0!
0.
1"
1Q
0_
0]
0\
0Y
0X
1S
0R
01!
13!
0=!
0)!
04!
06!
0:!
1+!
1V!
1]!
1d!
1k!
1y!
1R!
0@!
0U!
1[!
0`!
0c!
1i!
0g!
0j!
0p!
1-!
0>!
1/!
0M!
0J!
0K!
1N!
1T!
0Q!
1n!
1q!
1t!
0u!
0F!
0x!
0{!
0y!
1r!
1U!
0[!
1O!
0N!
1H!
1K!
1?!
0q!
1w!
0k!
1j!
0d!
0\!
0b!
0V!
0Y!
1z!
1l!
1e!
1^!
1W!
0W!
1c!
0]!
0e!
1k!
0l!
1x!
0r!
0R!
1I!
0O!
1P!
1\!
1b!
1V!
1s!
0z!
0{
1z
0u
0t
1W!
0c!
1]!
0P!
0s!
1y!
1l!
0^!
1d!
0b
1c
0h
0i
0<
0;
16
05
1e!
1z!
1^!
0d!
0e!
#180000
04
1,
1'
1!
0%
13
0*
0)
0$
0#
0Q
1P
1]
0[
0Z
1X
0V
0U
0T
1R
11!
05!
07!
09!
1=!
00!
02!
16!
1,!
0+!
0H!
0V!
0]!
0k!
0y!
0G!
0W!
0n!
1q!
0K!
0?!
1N!
1P!
1Q!
1Y!
1A!
0\!
0_!
0i!
0f!
1g!
1C!
0j!
0l!
0m!
1{!
1n!
0D!
1j!
1p!
1`!
0B!
1R!
0z!
0^!
0I!
0g!
0q!
1u!
1E!
1{
0y
0x
0w
1u
1F!
1b
0d
0e
0f
1h
1;
09
08
07
15
#190000
14
0!
0-
0/
1Q
0R
0`
0^
08!
0<!
01!
1+!
1H!
1O!
1V!
1]!
1d!
1k!
1r!
1y!
0u!
0F!
0x!
0{!
1K!
1?!
0N!
0T!
0P!
0Y!
1\!
0U!
1[!
0R!
1s!
1e!
1P!
1I!
0\!
0b!
0{
1c!
0b
05
#200000
04
1!
1/
03
1*
1)
1#
1(
1.
00
12
1&
0Q
0P
1O
1Y
1W
1T
1R
0a
1`
1_
1[
1Z
10!
12!
1:!
1<!
0(!
11!
15!
1;!
1)!
1*!
0,!
0+!
0H!
0O!
0V!
0]!
0d!
0k!
0r!
0y!
1^!
1.!
1G!
1L!
1a!
1f!
1o!
1|!
1J!
1g!
0j!
0p!
1l!
1M!
0K!
0?!
1N!
1T!
1@!
1W!
0n!
1D!
1q!
0w!
0E!
1z!
1{!
1F!
1x!
1u!
0o!
1X!
1Y!
1U!
0[!
1R!
0L!
0N!
0T!
1m!
0q!
1w!
1h!
1O!
1d!
1r!
1H!
1_!
0z!
0s!
0l!
0e!
0^!
0W!
0P!
0I!
0J!
0Q!
0X!
0_!
0f!
0m!
0t!
0{!
1I!
1s!
1e!
1P!
1k!
0x!
0U!
1[!
0O!
1S!
1\!
1b!
1Z!
0r!
1v!
0G!
1}!
1!"
1""
1#"
1$"
1&"
1'"
1t
1x
0H!
0d!
0k!
0s!
0c!
0P!
0\!
0b!
1l!
1Q!
1f!
1t!
1J!
1i
1e
1w
1y
1v
1{
1<
18
1m!
1c!
0Q!
0t!
0l!
0e!
0I!
1f
1d
1g
1b
1&!
1'!
1%!
1#!
1"!
1!!
1~
1|
0{
0z
0y
0x
0w
0v
0u
0t
1:
19
17
15
0J!
0f!
0m!
1j
1s
1k
1m
1n
1o
1p
1r
0b
0c
0d
0e
0f
0g
0h
0i
1t
1z
1x
1u
1E
1C
1B
1A
1@
1>
1=
11
0<
0;
0:
09
08
07
06
05
1i
1c
1e
1h
0z
0u
1y
1<
1;
18
16
0c
0h
1d
0y
0x
0t
0;
17
06
0d
0e
0i
0<
08
07
